<?xml version="1.0" encoding="UTF-8" ?>
<testsuite failures="0" time="0" errors="0" skipped="0" tests="1" name="com.killersmurf.antilogger.AppTest">
  <properties>
    <property name="java.runtime.name" value="Java(TM) SE Runtime Environment"/>
    <property name="sun.boot.library.path" value="C:\Program Files\Java\jdk1.7.0_01\jre\bin"/>
    <property name="java.vm.version" value="21.1-b02"/>
    <property name="java.vm.vendor" value="Oracle Corporation"/>
    <property name="java.vendor.url" value="http://java.oracle.com/"/>
    <property name="path.separator" value=";"/>
    <property name="java.vm.name" value="Java HotSpot(TM) Client VM"/>
    <property name="file.encoding.pkg" value="sun.io"/>
    <property name="user.script" value=""/>
    <property name="user.country" value="US"/>
    <property name="sun.java.launcher" value="SUN_STANDARD"/>
    <property name="sun.os.patch.level" value="Service Pack 3"/>
    <property name="java.vm.specification.name" value="Java Virtual Machine Specification"/>
    <property name="user.dir" value="C:\Documents and Settings\Dylan\workspace\AntiLogger"/>
    <property name="java.runtime.version" value="1.7.0_01-b08"/>
    <property name="java.awt.graphicsenv" value="sun.awt.Win32GraphicsEnvironment"/>
    <property name="basedir" value="C:\Documents and Settings\Dylan\workspace\AntiLogger"/>
    <property name="java.endorsed.dirs" value="C:\Program Files\Java\jdk1.7.0_01\jre\lib\endorsed"/>
    <property name="os.arch" value="x86"/>
    <property name="surefire.real.class.path" value="C:\Documents and Settings\Dylan\workspace\AntiLogger\target\surefire\surefirebooter3431468622253513515.jar"/>
    <property name="java.io.tmpdir" value="C:\DOCUME~1\Dylan\LOCALS~1\Temp\"/>
    <property name="line.separator" value="
"/>
    <property name="java.vm.specification.vendor" value="Oracle Corporation"/>
    <property name="user.variant" value=""/>
    <property name="os.name" value="Windows XP"/>
    <property name="sun.jnu.encoding" value="Cp1252"/>
    <property name="java.library.path" value="C:\Program Files\Java\jdk1.7.0_01\jre\bin;C:\WINDOWS\Sun\Java\bin;C:\WINDOWS\system32;C:\WINDOWS;C:\Program Files\NVIDIA Corporation\PhysX\Common;C:\WINDOWS\system32;C:\WINDOWS;C:\WINDOWS\System32\Wbem;C:\Program Files\TortoiseGit\bin;."/>
    <property name="surefire.test.class.path" value="C:\Documents and Settings\Dylan\workspace\AntiLogger\target\test-classes;C:\Documents and Settings\Dylan\workspace\AntiLogger\target\classes;C:\Documents and Settings\Dylan\.m2\repository\junit\junit\3.8.1\junit-3.8.1.jar;C:\Documents and Settings\Dylan\.m2\repository\org\getspout\spoutplugin\dev-SNAPSHOT\spoutplugin-dev-SNAPSHOT.jar;C:\Documents and Settings\Dylan\.m2\repository\org\bukkit\craftbukkit\1.1-R1-SNAPSHOT\craftbukkit-1.1-R1-SNAPSHOT.jar;C:\Documents and Settings\Dylan\.m2\repository\org\getspout\spoutapi\dev-SNAPSHOT\spoutapi-dev-SNAPSHOT.jar;"/>
    <property name="java.specification.name" value="Java Platform API Specification"/>
    <property name="java.class.version" value="51.0"/>
    <property name="sun.management.compiler" value="HotSpot Client Compiler"/>
    <property name="os.version" value="5.1"/>
    <property name="user.home" value="C:\Documents and Settings\Dylan"/>
    <property name="user.timezone" value=""/>
    <property name="java.awt.printerjob" value="sun.awt.windows.WPrinterJob"/>
    <property name="java.specification.version" value="1.7"/>
    <property name="file.encoding" value="Cp1252"/>
    <property name="user.name" value="Dylan"/>
    <property name="java.class.path" value="C:\Documents and Settings\Dylan\workspace\AntiLogger\target\test-classes;C:\Documents and Settings\Dylan\workspace\AntiLogger\target\classes;C:\Documents and Settings\Dylan\.m2\repository\junit\junit\3.8.1\junit-3.8.1.jar;C:\Documents and Settings\Dylan\.m2\repository\org\getspout\spoutplugin\dev-SNAPSHOT\spoutplugin-dev-SNAPSHOT.jar;C:\Documents and Settings\Dylan\.m2\repository\org\bukkit\craftbukkit\1.1-R1-SNAPSHOT\craftbukkit-1.1-R1-SNAPSHOT.jar;C:\Documents and Settings\Dylan\.m2\repository\org\getspout\spoutapi\dev-SNAPSHOT\spoutapi-dev-SNAPSHOT.jar;"/>
    <property name="java.vm.specification.version" value="1.7"/>
    <property name="sun.arch.data.model" value="32"/>
    <property name="java.home" value="C:\Program Files\Java\jdk1.7.0_01\jre"/>
    <property name="sun.java.command" value="C:\Documents and Settings\Dylan\workspace\AntiLogger\target\surefire\surefirebooter3431468622253513515.jar C:\Documents and Settings\Dylan\workspace\AntiLogger\target\surefire\surefire2538239942118978607tmp C:\Documents and Settings\Dylan\workspace\AntiLogger\target\surefire\surefire2216384705974662606tmp"/>
    <property name="java.specification.vendor" value="Oracle Corporation"/>
    <property name="user.language" value="en"/>
    <property name="awt.toolkit" value="sun.awt.windows.WToolkit"/>
    <property name="java.vm.info" value="mixed mode, sharing"/>
    <property name="java.version" value="1.7.0_01"/>
    <property name="java.ext.dirs" value="C:\Program Files\Java\jdk1.7.0_01\jre\lib\ext;C:\WINDOWS\Sun\Java\lib\ext"/>
    <property name="sun.boot.class.path" value="C:\Program Files\Java\jdk1.7.0_01\jre\lib\resources.jar;C:\Program Files\Java\jdk1.7.0_01\jre\lib\rt.jar;C:\Program Files\Java\jdk1.7.0_01\jre\lib\sunrsasign.jar;C:\Program Files\Java\jdk1.7.0_01\jre\lib\jsse.jar;C:\Program Files\Java\jdk1.7.0_01\jre\lib\jce.jar;C:\Program Files\Java\jdk1.7.0_01\jre\lib\charsets.jar;C:\Program Files\Java\jdk1.7.0_01\jre\classes"/>
    <property name="java.vendor" value="Oracle Corporation"/>
    <property name="localRepository" value="C:\Documents and Settings\Dylan\.m2\repository"/>
    <property name="file.separator" value="\"/>
    <property name="java.vendor.url.bug" value="http://bugreport.sun.com/bugreport/"/>
    <property name="sun.cpu.endian" value="little"/>
    <property name="sun.io.unicode.encoding" value="UnicodeLittle"/>
    <property name="sun.desktop" value="windows"/>
    <property name="sun.cpu.isalist" value="pentium_pro+mmx pentium_pro pentium+mmx pentium i486 i386 i86"/>
  </properties>
  <testcase time="0" classname="com.killersmurf.antilogger.AppTest" name="testApp"/>
</testsuite>